^G:\ADVANCED 3D\ASSIGNMENT\AP3DA ASSIGNMENT\AP3DA ASSIGNMENT\AP3DA ASSIGNMENT\APPLICATION.CPP
/c /ZI /nologo /W3 /WX- /sdl /Od /Oy- /D _MBCS /Gm /EHsc /RTC1 /MDd /GS /fp:precise /Zc:wchar_t /Zc:forScope /Fo"DEBUG\\" /Fd"DEBUG\VC120.PDB" /Gd /TP /analyze- G:\ADVANCED 3D\ASSIGNMENT\AP3DA ASSIGNMENT\AP3DA ASSIGNMENT\AP3DA ASSIGNMENT\APPLICATION.CPP
^G:\ADVANCED 3D\ASSIGNMENT\AP3DA ASSIGNMENT\AP3DA ASSIGNMENT\AP3DA ASSIGNMENT\CAMERA.CPP
/c /ZI /nologo /W3 /WX- /sdl /Od /Oy- /D _MBCS /Gm /EHsc /RTC1 /MDd /GS /fp:precise /Zc:wchar_t /Zc:forScope /Fo"DEBUG\\" /Fd"DEBUG\VC120.PDB" /Gd /TP /analyze- G:\ADVANCED 3D\ASSIGNMENT\AP3DA ASSIGNMENT\AP3DA ASSIGNMENT\AP3DA ASSIGNMENT\CAMERA.CPP
^G:\ADVANCED 3D\ASSIGNMENT\AP3DA ASSIGNMENT\AP3DA ASSIGNMENT\AP3DA ASSIGNMENT\DDSTEXTURELOADER.CPP
/c /ZI /nologo /W3 /WX- /sdl /Od /Oy- /D _MBCS /Gm /EHsc /RTC1 /MDd /GS /fp:precise /Zc:wchar_t /Zc:forScope /Fo"DEBUG\\" /Fd"DEBUG\VC120.PDB" /Gd /TP /analyze- G:\ADVANCED 3D\ASSIGNMENT\AP3DA ASSIGNMENT\AP3DA ASSIGNMENT\AP3DA ASSIGNMENT\DDSTEXTURELOADER.CPP
^G:\ADVANCED 3D\ASSIGNMENT\AP3DA ASSIGNMENT\AP3DA ASSIGNMENT\AP3DA ASSIGNMENT\DIAMONDSQUARETERRAINGENERATOR.CPP
/c /ZI /nologo /W3 /WX- /sdl /Od /Oy- /D _MBCS /Gm /EHsc /RTC1 /MDd /GS /fp:precise /Zc:wchar_t /Zc:forScope /Fo"DEBUG\\" /Fd"DEBUG\VC120.PDB" /Gd /TP /analyze- G:\ADVANCED 3D\ASSIGNMENT\AP3DA ASSIGNMENT\AP3DA ASSIGNMENT\AP3DA ASSIGNMENT\DIAMONDSQUARETERRAINGENERATOR.CPP
^G:\ADVANCED 3D\ASSIGNMENT\AP3DA ASSIGNMENT\AP3DA ASSIGNMENT\AP3DA ASSIGNMENT\FAULTTERRAINGENERATOR.CPP
/c /ZI /nologo /W3 /WX- /sdl /Od /Oy- /D _MBCS /Gm /EHsc /RTC1 /MDd /GS /fp:precise /Zc:wchar_t /Zc:forScope /Fo"DEBUG\\" /Fd"DEBUG\VC120.PDB" /Gd /TP /analyze- G:\ADVANCED 3D\ASSIGNMENT\AP3DA ASSIGNMENT\AP3DA ASSIGNMENT\AP3DA ASSIGNMENT\FAULTTERRAINGENERATOR.CPP
^G:\ADVANCED 3D\ASSIGNMENT\AP3DA ASSIGNMENT\AP3DA ASSIGNMENT\AP3DA ASSIGNMENT\GAMEOBJECT.CPP
/c /ZI /nologo /W3 /WX- /sdl /Od /Oy- /D _MBCS /Gm /EHsc /RTC1 /MDd /GS /fp:precise /Zc:wchar_t /Zc:forScope /Fo"DEBUG\\" /Fd"DEBUG\VC120.PDB" /Gd /TP /analyze- G:\ADVANCED 3D\ASSIGNMENT\AP3DA ASSIGNMENT\AP3DA ASSIGNMENT\AP3DA ASSIGNMENT\GAMEOBJECT.CPP
^G:\ADVANCED 3D\ASSIGNMENT\AP3DA ASSIGNMENT\AP3DA ASSIGNMENT\AP3DA ASSIGNMENT\HEIGHTMAPTERRAINGENERATOR.CPP
/c /ZI /nologo /W3 /WX- /sdl /Od /Oy- /D _MBCS /Gm /EHsc /RTC1 /MDd /GS /fp:precise /Zc:wchar_t /Zc:forScope /Fo"DEBUG\\" /Fd"DEBUG\VC120.PDB" /Gd /TP /analyze- G:\ADVANCED 3D\ASSIGNMENT\AP3DA ASSIGNMENT\AP3DA ASSIGNMENT\AP3DA ASSIGNMENT\HEIGHTMAPTERRAINGENERATOR.CPP
^G:\ADVANCED 3D\ASSIGNMENT\AP3DA ASSIGNMENT\AP3DA ASSIGNMENT\AP3DA ASSIGNMENT\MAIN.CPP
/c /ZI /nologo /W3 /WX- /sdl /Od /Oy- /D _MBCS /Gm /EHsc /RTC1 /MDd /GS /fp:precise /Zc:wchar_t /Zc:forScope /Fo"DEBUG\\" /Fd"DEBUG\VC120.PDB" /Gd /TP /analyze- G:\ADVANCED 3D\ASSIGNMENT\AP3DA ASSIGNMENT\AP3DA ASSIGNMENT\AP3DA ASSIGNMENT\MAIN.CPP
^G:\ADVANCED 3D\ASSIGNMENT\AP3DA ASSIGNMENT\AP3DA ASSIGNMENT\AP3DA ASSIGNMENT\TERRAIN.CPP
/c /ZI /nologo /W3 /WX- /sdl /Od /Oy- /D _MBCS /Gm /EHsc /RTC1 /MDd /GS /fp:precise /Zc:wchar_t /Zc:forScope /Fo"DEBUG\\" /Fd"DEBUG\VC120.PDB" /Gd /TP /analyze- G:\ADVANCED 3D\ASSIGNMENT\AP3DA ASSIGNMENT\AP3DA ASSIGNMENT\AP3DA ASSIGNMENT\TERRAIN.CPP
^E:\ADVANCED 3D\ASSIGNMENT\AP3DA ASSIGNMENT\AP3DA ASSIGNMENT\AP3DA ASSIGNMENT\APPLICATION.CPP
/c /ZI /nologo /W3 /WX- /sdl /Od /Oy- /D _MBCS /Gm /EHsc /RTC1 /MDd /GS /fp:precise /Zc:wchar_t /Zc:forScope /Fo"DEBUG\\" /Fd"DEBUG\VC120.PDB" /Gd /TP /analyze- E:\ADVANCED 3D\ASSIGNMENT\AP3DA ASSIGNMENT\AP3DA ASSIGNMENT\AP3DA ASSIGNMENT\APPLICATION.CPP
^E:\ADVANCED 3D\ASSIGNMENT\AP3DA ASSIGNMENT\AP3DA ASSIGNMENT\AP3DA ASSIGNMENT\CAMERA.CPP
/c /ZI /nologo /W3 /WX- /sdl /Od /Oy- /D _MBCS /Gm /EHsc /RTC1 /MDd /GS /fp:precise /Zc:wchar_t /Zc:forScope /Fo"DEBUG\\" /Fd"DEBUG\VC120.PDB" /Gd /TP /analyze- E:\ADVANCED 3D\ASSIGNMENT\AP3DA ASSIGNMENT\AP3DA ASSIGNMENT\AP3DA ASSIGNMENT\CAMERA.CPP
^E:\ADVANCED 3D\ASSIGNMENT\AP3DA ASSIGNMENT\AP3DA ASSIGNMENT\AP3DA ASSIGNMENT\DDSTEXTURELOADER.CPP
/c /ZI /nologo /W3 /WX- /sdl /Od /Oy- /D _MBCS /Gm /EHsc /RTC1 /MDd /GS /fp:precise /Zc:wchar_t /Zc:forScope /Fo"DEBUG\\" /Fd"DEBUG\VC120.PDB" /Gd /TP /analyze- E:\ADVANCED 3D\ASSIGNMENT\AP3DA ASSIGNMENT\AP3DA ASSIGNMENT\AP3DA ASSIGNMENT\DDSTEXTURELOADER.CPP
^E:\ADVANCED 3D\ASSIGNMENT\AP3DA ASSIGNMENT\AP3DA ASSIGNMENT\AP3DA ASSIGNMENT\DIAMONDSQUARETERRAINGENERATOR.CPP
/c /ZI /nologo /W3 /WX- /sdl /Od /Oy- /D _MBCS /Gm /EHsc /RTC1 /MDd /GS /fp:precise /Zc:wchar_t /Zc:forScope /Fo"DEBUG\\" /Fd"DEBUG\VC120.PDB" /Gd /TP /analyze- E:\ADVANCED 3D\ASSIGNMENT\AP3DA ASSIGNMENT\AP3DA ASSIGNMENT\AP3DA ASSIGNMENT\DIAMONDSQUARETERRAINGENERATOR.CPP
^E:\ADVANCED 3D\ASSIGNMENT\AP3DA ASSIGNMENT\AP3DA ASSIGNMENT\AP3DA ASSIGNMENT\FAULTTERRAINGENERATOR.CPP
/c /ZI /nologo /W3 /WX- /sdl /Od /Oy- /D _MBCS /Gm /EHsc /RTC1 /MDd /GS /fp:precise /Zc:wchar_t /Zc:forScope /Fo"DEBUG\\" /Fd"DEBUG\VC120.PDB" /Gd /TP /analyze- E:\ADVANCED 3D\ASSIGNMENT\AP3DA ASSIGNMENT\AP3DA ASSIGNMENT\AP3DA ASSIGNMENT\FAULTTERRAINGENERATOR.CPP
^E:\ADVANCED 3D\ASSIGNMENT\AP3DA ASSIGNMENT\AP3DA ASSIGNMENT\AP3DA ASSIGNMENT\GAMEOBJECT.CPP
/c /ZI /nologo /W3 /WX- /sdl /Od /Oy- /D _MBCS /Gm /EHsc /RTC1 /MDd /GS /fp:precise /Zc:wchar_t /Zc:forScope /Fo"DEBUG\\" /Fd"DEBUG\VC120.PDB" /Gd /TP /analyze- E:\ADVANCED 3D\ASSIGNMENT\AP3DA ASSIGNMENT\AP3DA ASSIGNMENT\AP3DA ASSIGNMENT\GAMEOBJECT.CPP
^E:\ADVANCED 3D\ASSIGNMENT\AP3DA ASSIGNMENT\AP3DA ASSIGNMENT\AP3DA ASSIGNMENT\HEIGHTMAPTERRAINGENERATOR.CPP
/c /ZI /nologo /W3 /WX- /sdl /Od /Oy- /D _MBCS /Gm /EHsc /RTC1 /MDd /GS /fp:precise /Zc:wchar_t /Zc:forScope /Fo"DEBUG\\" /Fd"DEBUG\VC120.PDB" /Gd /TP /analyze- E:\ADVANCED 3D\ASSIGNMENT\AP3DA ASSIGNMENT\AP3DA ASSIGNMENT\AP3DA ASSIGNMENT\HEIGHTMAPTERRAINGENERATOR.CPP
^E:\ADVANCED 3D\ASSIGNMENT\AP3DA ASSIGNMENT\AP3DA ASSIGNMENT\AP3DA ASSIGNMENT\MAIN.CPP
/c /ZI /nologo /W3 /WX- /sdl /Od /Oy- /D _MBCS /Gm /EHsc /RTC1 /MDd /GS /fp:precise /Zc:wchar_t /Zc:forScope /Fo"DEBUG\\" /Fd"DEBUG\VC120.PDB" /Gd /TP /analyze- E:\ADVANCED 3D\ASSIGNMENT\AP3DA ASSIGNMENT\AP3DA ASSIGNMENT\AP3DA ASSIGNMENT\MAIN.CPP
^E:\ADVANCED 3D\ASSIGNMENT\AP3DA ASSIGNMENT\AP3DA ASSIGNMENT\AP3DA ASSIGNMENT\TERRAIN.CPP
/c /ZI /nologo /W3 /WX- /sdl /Od /Oy- /D _MBCS /Gm /EHsc /RTC1 /MDd /GS /fp:precise /Zc:wchar_t /Zc:forScope /Fo"DEBUG\\" /Fd"DEBUG\VC120.PDB" /Gd /TP /analyze- E:\ADVANCED 3D\ASSIGNMENT\AP3DA ASSIGNMENT\AP3DA ASSIGNMENT\AP3DA ASSIGNMENT\TERRAIN.CPP
