^E:\ADVANCED 3D\ASSIGNMENT\AP3DA ASSIGNMENT\AP3DA ASSIGNMENT\AP3DA ASSIGNMENT\DX11 FRAMEWORK.FX
^G:\ADVANCED 3D\ASSIGNMENT\AP3DA ASSIGNMENT\AP3DA ASSIGNMENT\AP3DA ASSIGNMENT\DX11 FRAMEWORK.FX
^G:\ADVANCED 3D\ASSIGNMENT\AP3DA ASSIGNMENT\AP3DA ASSIGNMENT\AP3DA ASSIGNMENT\TERRAINSHADER.FX
