^E:\ADVANCED 3D\ASSIGNMENT\AP3DA ASSIGNMENT\AP3DA ASSIGNMENT\AP3DA ASSIGNMENT\APPLICATION.CPP
/c /Zi /nologo /W3 /WX- /sdl /O2 /Oi /Oy- /GL /D _MBCS /Gm- /EHsc /MD /GS /Gy /fp:precise /Zc:wchar_t /Zc:forScope /Fo"RELEASE\\" /Fd"RELEASE\VC120.PDB" /Gd /TP /analyze- E:\ADVANCED 3D\ASSIGNMENT\AP3DA ASSIGNMENT\AP3DA ASSIGNMENT\AP3DA ASSIGNMENT\APPLICATION.CPP
^E:\ADVANCED 3D\ASSIGNMENT\AP3DA ASSIGNMENT\AP3DA ASSIGNMENT\AP3DA ASSIGNMENT\CAMERA.CPP
/c /Zi /nologo /W3 /WX- /sdl /O2 /Oi /Oy- /GL /D _MBCS /Gm- /EHsc /MD /GS /Gy /fp:precise /Zc:wchar_t /Zc:forScope /Fo"RELEASE\\" /Fd"RELEASE\VC120.PDB" /Gd /TP /analyze- E:\ADVANCED 3D\ASSIGNMENT\AP3DA ASSIGNMENT\AP3DA ASSIGNMENT\AP3DA ASSIGNMENT\CAMERA.CPP
^E:\ADVANCED 3D\ASSIGNMENT\AP3DA ASSIGNMENT\AP3DA ASSIGNMENT\AP3DA ASSIGNMENT\DDSTEXTURELOADER.CPP
/c /Zi /nologo /W3 /WX- /sdl /O2 /Oi /Oy- /GL /D _MBCS /Gm- /EHsc /MD /GS /Gy /fp:precise /Zc:wchar_t /Zc:forScope /Fo"RELEASE\\" /Fd"RELEASE\VC120.PDB" /Gd /TP /analyze- E:\ADVANCED 3D\ASSIGNMENT\AP3DA ASSIGNMENT\AP3DA ASSIGNMENT\AP3DA ASSIGNMENT\DDSTEXTURELOADER.CPP
^E:\ADVANCED 3D\ASSIGNMENT\AP3DA ASSIGNMENT\AP3DA ASSIGNMENT\AP3DA ASSIGNMENT\DIAMONDSQUARETERRAINGENERATOR.CPP
/c /Zi /nologo /W3 /WX- /sdl /O2 /Oi /Oy- /GL /D _MBCS /Gm- /EHsc /MD /GS /Gy /fp:precise /Zc:wchar_t /Zc:forScope /Fo"RELEASE\\" /Fd"RELEASE\VC120.PDB" /Gd /TP /analyze- E:\ADVANCED 3D\ASSIGNMENT\AP3DA ASSIGNMENT\AP3DA ASSIGNMENT\AP3DA ASSIGNMENT\DIAMONDSQUARETERRAINGENERATOR.CPP
^E:\ADVANCED 3D\ASSIGNMENT\AP3DA ASSIGNMENT\AP3DA ASSIGNMENT\AP3DA ASSIGNMENT\FAULTTERRAINGENERATOR.CPP
/c /Zi /nologo /W3 /WX- /sdl /O2 /Oi /Oy- /GL /D _MBCS /Gm- /EHsc /MD /GS /Gy /fp:precise /Zc:wchar_t /Zc:forScope /Fo"RELEASE\\" /Fd"RELEASE\VC120.PDB" /Gd /TP /analyze- E:\ADVANCED 3D\ASSIGNMENT\AP3DA ASSIGNMENT\AP3DA ASSIGNMENT\AP3DA ASSIGNMENT\FAULTTERRAINGENERATOR.CPP
^E:\ADVANCED 3D\ASSIGNMENT\AP3DA ASSIGNMENT\AP3DA ASSIGNMENT\AP3DA ASSIGNMENT\GAMEOBJECT.CPP
/c /Zi /nologo /W3 /WX- /sdl /O2 /Oi /Oy- /GL /D _MBCS /Gm- /EHsc /MD /GS /Gy /fp:precise /Zc:wchar_t /Zc:forScope /Fo"RELEASE\\" /Fd"RELEASE\VC120.PDB" /Gd /TP /analyze- E:\ADVANCED 3D\ASSIGNMENT\AP3DA ASSIGNMENT\AP3DA ASSIGNMENT\AP3DA ASSIGNMENT\GAMEOBJECT.CPP
^E:\ADVANCED 3D\ASSIGNMENT\AP3DA ASSIGNMENT\AP3DA ASSIGNMENT\AP3DA ASSIGNMENT\HEIGHTMAPTERRAINGENERATOR.CPP
/c /Zi /nologo /W3 /WX- /sdl /O2 /Oi /Oy- /GL /D _MBCS /Gm- /EHsc /MD /GS /Gy /fp:precise /Zc:wchar_t /Zc:forScope /Fo"RELEASE\\" /Fd"RELEASE\VC120.PDB" /Gd /TP /analyze- E:\ADVANCED 3D\ASSIGNMENT\AP3DA ASSIGNMENT\AP3DA ASSIGNMENT\AP3DA ASSIGNMENT\HEIGHTMAPTERRAINGENERATOR.CPP
^E:\ADVANCED 3D\ASSIGNMENT\AP3DA ASSIGNMENT\AP3DA ASSIGNMENT\AP3DA ASSIGNMENT\MAIN.CPP
/c /Zi /nologo /W3 /WX- /sdl /O2 /Oi /Oy- /GL /D _MBCS /Gm- /EHsc /MD /GS /Gy /fp:precise /Zc:wchar_t /Zc:forScope /Fo"RELEASE\\" /Fd"RELEASE\VC120.PDB" /Gd /TP /analyze- E:\ADVANCED 3D\ASSIGNMENT\AP3DA ASSIGNMENT\AP3DA ASSIGNMENT\AP3DA ASSIGNMENT\MAIN.CPP
^E:\ADVANCED 3D\ASSIGNMENT\AP3DA ASSIGNMENT\AP3DA ASSIGNMENT\AP3DA ASSIGNMENT\TERRAIN.CPP
/c /Zi /nologo /W3 /WX- /sdl /O2 /Oi /Oy- /GL /D _MBCS /Gm- /EHsc /MD /GS /Gy /fp:precise /Zc:wchar_t /Zc:forScope /Fo"RELEASE\\" /Fd"RELEASE\VC120.PDB" /Gd /TP /analyze- E:\ADVANCED 3D\ASSIGNMENT\AP3DA ASSIGNMENT\AP3DA ASSIGNMENT\AP3DA ASSIGNMENT\TERRAIN.CPP
