^E:\ADVANCED 3D\ASSIGNMENT\AP3DA ASSIGNMENT\AP3DA ASSIGNMENT\AP3DA ASSIGNMENT\RELEASE\APPLICATION.OBJ|E:\ADVANCED 3D\ASSIGNMENT\AP3DA ASSIGNMENT\AP3DA ASSIGNMENT\AP3DA ASSIGNMENT\RELEASE\CAMERA.OBJ|E:\ADVANCED 3D\ASSIGNMENT\AP3DA ASSIGNMENT\AP3DA ASSIGNMENT\AP3DA ASSIGNMENT\RELEASE\DDSTEXTURELOADER.OBJ|E:\ADVANCED 3D\ASSIGNMENT\AP3DA ASSIGNMENT\AP3DA ASSIGNMENT\AP3DA ASSIGNMENT\RELEASE\DIAMONDSQUARETERRAINGENERATOR.OBJ|E:\ADVANCED 3D\ASSIGNMENT\AP3DA ASSIGNMENT\AP3DA ASSIGNMENT\AP3DA ASSIGNMENT\RELEASE\FAULTTERRAINGENERATOR.OBJ|E:\ADVANCED 3D\ASSIGNMENT\AP3DA ASSIGNMENT\AP3DA ASSIGNMENT\AP3DA ASSIGNMENT\RELEASE\GAMEOBJECT.OBJ|E:\ADVANCED 3D\ASSIGNMENT\AP3DA ASSIGNMENT\AP3DA ASSIGNMENT\AP3DA ASSIGNMENT\RELEASE\HEIGHTMAPTERRAINGENERATOR.OBJ|E:\ADVANCED 3D\ASSIGNMENT\AP3DA ASSIGNMENT\AP3DA ASSIGNMENT\AP3DA ASSIGNMENT\RELEASE\MAIN.OBJ|E:\ADVANCED 3D\ASSIGNMENT\AP3DA ASSIGNMENT\AP3DA ASSIGNMENT\AP3DA ASSIGNMENT\RELEASE\TERRAIN.OBJ
E:\ADVANCED 3D\ASSIGNMENT\AP3DA ASSIGNMENT\AP3DA ASSIGNMENT\RELEASE\AP3DA ASSIGNMENT.EXE
E:\ADVANCED 3D\ASSIGNMENT\AP3DA ASSIGNMENT\AP3DA ASSIGNMENT\RELEASE\AP3DA ASSIGNMENT.PDB
